<?xml version="1.0" encoding="utf-8"?>
<!-- Generator: Adobe Illustrator 22.0.0, SVG Export Plug-In . SVG Version: 6.00 Build 0)  -->
<svg version="1.1" id="Слой_1" xmlns="http://www.w3.org/2000/svg" xmlns:xlink="http://www.w3.org/1999/xlink" x="0px" y="0px"
	 width="22px" height="22px" viewBox="0 0 22 22" style="enable-background:new 0 0 22 22;" xml:space="preserve">
<path d="M19.6,0H9.1H6.3H4.9C3.1,0,1.7,1.4,1.7,3.1v15.8c0,1.7,1.4,3.1,3.1,3.1h14.7c0.4,0,0.7-0.3,0.7-0.7v-4.8V5.5V0.7
	C20.3,0.3,19.9,0,19.6,0z M4.9,1.4h14v4.1v10.2h-14c-0.6,0-1.2,0.2-1.7,0.5V3.1C3.1,2.2,3.9,1.4,4.9,1.4z M4.9,20.6
	c-0.9,0-1.7-0.8-1.7-1.7c0-0.9,0.8-1.7,1.7-1.7h14v1h-14c-0.4,0-0.7,0.3-0.7,0.7c0,0.4,0.3,0.7,0.7,0.7h14v1H4.9z"/>
</svg>
