<?xml version="1.0" encoding="utf-8"?>
<!-- Generator: Adobe Illustrator 22.0.0, SVG Export Plug-In . SVG Version: 6.00 Build 0)  -->
<svg version="1.1" id="Слой_1" xmlns="http://www.w3.org/2000/svg" xmlns:xlink="http://www.w3.org/1999/xlink" x="0px" y="0px"
	 width="22px" height="22px" viewBox="0 0 22 22" style="enable-background:new 0 0 22 22;" xml:space="preserve">
<g>
	<g>
		<g>
			<path d="M13.3,15.1H8.7c-3.8,0-6.9,3.1-6.9,6.9h18.4C20.2,18.2,17.1,15.1,13.3,15.1z"/>
			<path d="M11.8,11.9c0.4,0,0.7,0.1,1,0.3h1.7c0.8-0.9,1.3-2,1.3-3.3c0-2.7-2.2-4.8-4.8-4.8S6.2,6.3,6.2,9c0,1.8,1,3.4,2.5,4.2
				c0.2-0.7,0.8-1.2,1.5-1.2H11.8z"/>
			<path d="M3.9,9.4c0.1,0.5,0.3,1,0.6,1.3c0.3,0.3,0.6,0.5,1,0.6c0-0.1,0-0.2,0-0.2V7.2c0-0.1,0-0.2,0-0.2C5.2,7,4.8,7.2,4.6,7.5
				c0,0-0.1,0.1-0.1,0.1V7.4c0-0.4,0-0.8,0.1-1.1c0.1-0.4,0.2-0.7,0.3-1.1c0.1-0.4,0.3-0.7,0.5-1C5.5,3.9,5.8,3.5,6,3.3
				c0,0,0-0.1,0-0.1c0.2,0,0.4,0,0.5-0.2c1.2-1.2,2.8-1.8,4.4-1.8s3.2,0.6,4.4,1.8c0.1,0.1,0.3,0.2,0.5,0.2c0,0,0,0.1,0,0.1
				c0.2,0.3,0.5,0.6,0.6,0.9c0.2,0.3,0.3,0.7,0.5,1c0.1,0.4,0.2,0.7,0.3,1.1c0.1,0.4,0.1,0.7,0.1,1.1v0.2c0,0-0.1-0.1-0.1-0.1
				c-0.3-0.3-0.6-0.5-1-0.6c0,0.1,0,0.2,0,0.2v3.9c0,0.1,0,0.2,0,0.2c0.1,0,0.2-0.1,0.3-0.1v1.3c0,0.1,0,0.3,0,0.4s-0.1,0.2-0.1,0.2
				c0,0-0.1,0.1-0.2,0.1c-0.1,0-0.2,0-0.3,0h0h-3.7c-0.1-0.2-0.3-0.3-0.6-0.3h-1.6c-0.4,0-0.6,0.3-0.6,0.6c0,0.4,0.3,0.6,0.7,0.6
				h1.6c0.2,0,0.5-0.1,0.6-0.3h3.7h0.1c0.1,0,0.3,0,0.4-0.1c0.2-0.1,0.3-0.1,0.4-0.3c0.1-0.1,0.2-0.3,0.2-0.4c0-0.2,0.1-0.4,0.1-0.6
				v-1.6v-0.1c0,0,0,0,0.1-0.1c0.3-0.3,0.6-0.8,0.6-1.3c0,0,0,0,0,0c0.1-0.1,0.1-0.2,0.1-0.2V7.4c0-0.4,0-0.8-0.1-1.2
				C18,5.8,17.9,5.4,17.8,5c-0.1-0.4-0.3-0.8-0.5-1.1c-0.2-0.4-0.4-0.7-0.7-1c0,0-0.1-0.1-0.1-0.1c0-0.2,0-0.4-0.2-0.5
				C14.8,0.7,12.9,0,11,0S7.2,0.7,5.7,2.2C5.6,2.3,5.5,2.5,5.6,2.7c0,0-0.1,0-0.1,0.1c-0.3,0.3-0.5,0.7-0.7,1S4.4,4.6,4.2,5
				C4.1,5.4,3.9,5.8,3.9,6.2C3.8,6.6,3.8,7,3.8,7.4v1.7C3.8,9.2,3.8,9.3,3.9,9.4C3.9,9.4,3.9,9.4,3.9,9.4z"/>
		</g>
	</g>
</g>
</svg>
